{
  "Module": {
    "Photo": {
      "X": 0.55,
      "Y": 0.9,
      "Width": 2,
      "Height": 1.75
    },
    "Name": {
      "X": 0.15,
      "Y": 2.8,
      "Width": 2.25,
      "Height": 0.371,
      "Font": "OS-Reg",
      "Font Size": 27
    },
    "Quote": {
      "X": 0.05,
      "Y": 0.20,
      "Width": 2.45,
      "Height": 0.5,
      "Font": "OS-Light",
      "Font Size": 13
    }
  },
  "Positions": [
    {
      "X": 0.5,
      "Y": 7.45
    },
    {
      "X": 3.125,
      "Y": 7.45
    },
    {
      "X": 5.75,
      "Y": 7.45
    },
    {
      "X": 0.5,
      "Y": 3.875
    },
    {
      "X": 3.125,
      "Y": 3.875
    },
    {
      "X": 5.75,
      "Y": 3.875
    },
    {
      "X": 0.5,
      "Y": 0.3
    },
    {
      "X": 3.125,
      "Y": 0.3
    },
    {
      "X": 5.75,
      "Y": 0.3
    }
  ]
}